[1] 1
-\                                                                                                                /                                                                                                                -|                                                                                                                -\                                                                                                                /                                                                                                                -|                                                                                                                 # # # # # # # # # # # # # # # # # # # # # # # # # # # # # # # # # # # # # 
 # #   HOMICIDIO.xlsx  # #
 # # # # # # # # # # # # # # # # # # # # # # # # # # # # # # # # # # # # # 
- YEARS: 
> Old:
 2003  2004  2005  2006  2007  2008  2009  2010  2011  2012  2013  2014  2015  2016  2017  2018  2019  2020  2021 
15327 13673 12619 12466 12460 11825 11174 10760 10908 11644 11038  9969  9612  9442  9494 10110 10178  9680 11028 
 2022  2023 
10828  7010 

> New:
 2003  2004  2005  2006  2007  2008  2009  2010  2011  2012  2013  2014  2015  2016  2017  2018  2019  2020  2021 
22318 18807 16673 15707 15160 14683 15273 14782 15573 15758 14752 12808 12298 12015 11929 12536 12495 11944 13620 
 2022  2023 
13486 13387 


> There are  2 columns not shared: 
[1] "cantidad" "victimas"
**************** OLD FILE ****************
# A tibble: 3 × 8
  fecha_hecho         cod_depto departamento cod_muni municipio zona   sexo      cantidad
  <dttm>              <chr>     <chr>        <chr>    <chr>     <chr>  <chr>        <dbl>
1 2003-01-01 00:00:00 05        ANTIOQUIA    05001    MEDELLIN  RURAL  MASCULINO        1
2 2003-01-01 00:00:00 05        ANTIOQUIA    05001    MEDELLIN  URBANA FEMENINO         1
3 2003-01-01 00:00:00 05        ANTIOQUIA    05001    MEDELLIN  URBANA MASCULINO       13
++++++++++++++++++++ NEW FILE ++++++++++++++++++++
# A tibble: 3 × 8
  fecha_hecho         cod_depto departamento cod_muni municipio zona   sexo      victimas
  <dttm>              <chr>     <chr>        <chr>    <chr>     <chr>  <chr>        <dbl>
1 2003-01-01 00:00:00 91        AMAZONAS     91001    LETICIA   RURAL  MASCULINO        1
2 2003-01-01 00:00:00 05        ANTIOQUIA    05034    ANDES     RURAL  MASCULINO        1
3 2003-01-01 00:00:00 05        ANTIOQUIA    05045    APARTADO  URBANA MASCULINO        1





[1] 2
-/                                                                                                                /                                                                                                                -                                                                                                                -/                                                                                                                /                                                                                                                -                                                                                                                 # # # # # # # # # # # # # # # # # # # # # # # # # # # # # # # # # # # # # 
 # #   HOMICIDIO_COLECTIVO.xlsx  # #
 # # # # # # # # # # # # # # # # # # # # # # # # # # # # # # # # # # # # # 
- YEARS: 
> Old:
2003 2004 2005 2006 2007 2008 2009 2010 2011 2012 2013 2014 2015 2016 2017 2018 2019 2020 2021 2022 2023 
  94   46   48   37   26   37   29   38   37   33   23    9   13    9   13   13   22   33   30   25    8 

> New:
2022 2023 
  93   80 


> There are  4 columns not shared: 
[1] "zona"     "cantidad" "casos"    "victimas"
**************** OLD FILE ****************
# A tibble: 3 × 7
  fecha_hecho         cod_depto departamento    cod_muni municipio zona   cantidad
  <dttm>              <chr>     <chr>           <chr>    <chr>     <chr>     <dbl>
1 2003-01-03 00:00:00 76        VALLE DEL CAUCA 76001    CALI      URBANA        1
2 2003-01-03 00:00:00 81        ARAUCA          81794    TAME      URBANA        1
3 2003-01-09 00:00:00 81        ARAUCA          81300    FORTUL    RURAL         1
++++++++++++++++++++ NEW FILE ++++++++++++++++++++
# A tibble: 3 × 7
  fecha_hecho         cod_depto departamento    cod_muni municipio casos victimas
  <dttm>              <chr>     <chr>           <chr>    <chr>     <dbl>    <dbl>
1 2022-01-02 00:00:00 81        ARAUCA          81300    FORTUL        1        4
2 2022-01-03 00:00:00 76        VALLE DEL CAUCA 76364    JAMUNDI       1        3
3 2022-01-06 00:00:00 85        CASANARE        85139    MANI          1        3





[1] 3
-                                                                                                                /                                                                                                                -\                                                                                                                -                                                                                                                /                                                                                                                -\                                                                                                                 # # # # # # # # # # # # # # # # # # # # # # # # # # # # # # # # # # # # # 
 # #   SECUESTRO.xlsx  # #
 # # # # # # # # # # # # # # # # # # # # # # # # # # # # # # # # # # # # # 
- YEARS: 
> Old:
1996 1997 1998 1999 2000 2001 2002 2003 2004 2005 2006 2007 2008 2009 2010 2011 2012 2013 2014 2015 2016 2017 
 837 1100 1764 2088 2417 1715 1759 1465 1047  648  583  416  321  186  242  255  247  247  236  174  184  181 
2018 2019 2020 2021 2022 2023 
 149  101  139  121  163  166 

> New:
1996 1997 1998 1999 2000 2001 2002 2003 2004 2005 2006 2007 2008 2009 2010 2011 2012 2013 2014 2015 2016 2017 
1038 1624 2860 3205 3572 2917 2882 2123 1440  801  690  523  437  213  282  305  305  299  288  213  207  195 
2018 2019 2020 2021 2022 2023 
 176  163  162  160  223  331 


> There are  2 columns not shared: 
[1] "tipo_delito"          "descripcion_conducta"
**************** OLD FILE ****************
# A tibble: 3 × 7
  fecha_hecho         cod_depto departamento cod_muni municipio            tipo_delito         cantidad
  <dttm>              <chr>     <chr>        <chr>    <chr>                <chr>                  <dbl>
1 1996-01-01 00:00:00 05        ANTIOQUIA    05042    SANTAFE DE ANTIOQUIA SECUESTRO SIMPLE           1
2 1996-01-01 00:00:00 25        CUNDINAMARCA 25290    FUSAGASUGA           SECUESTRO EXTORSIVO        1
3 1996-01-02 00:00:00 05        ANTIOQUIA    05038    ANGOSTURA            SECUESTRO EXTORSIVO        1
++++++++++++++++++++ NEW FILE ++++++++++++++++++++
# A tibble: 3 × 7
  fecha_hecho         cod_depto departamento cod_muni municipio            descripcion_conducta cantidad
  <dttm>              <chr>     <chr>        <chr>    <chr>                <chr>                   <dbl>
1 1996-01-01 00:00:00 05        ANTIOQUIA    05042    SANTAFE DE ANTIOQUIA SECUESTRO SIMPLE            1
2 1996-01-01 00:00:00 25        CUNDINAMARCA 25290    FUSAGASUGA           SECUESTRO EXTORSIVO         1
3 1996-01-02 00:00:00 05        ANTIOQUIA    05038    ANGOSTURA            SECUESTRO EXTORSIVO         1





[1] 4
-/                                                                                                                /                                                                                                                -                                                                                                                -/                                                                                                                /                                                                                                                -                                                                                                                 # # # # # # # # # # # # # # # # # # # # # # # # # # # # # # # # # # # # # 
 # #   TRATA_PERSONAS.xlsx  # #
 # # # # # # # # # # # # # # # # # # # # # # # # # # # # # # # # # # # # # 
- YEARS: 
> Old:
2003 2004 2005 2006 2007 2008 2009 2010 2011 2012 2013 2014 2015 2016 2017 2018 2019 2020 2021 2022 2023 
   1    1    2    7   35   70   65   30   51   38   34   36  216  276  175  188  214  205  476  325  305 

> New:
2003 2004 2005 2006 2007 2008 2009 2010 2011 2012 2013 2014 2015 2016 2017 2018 2019 2020 2021 2022 2023 
   1    2    2    7   55  111  147   44   68   49   37   54  301  395  227  282  293  270  736  628  648 


> There are  3 columns not shared: 
[1] "conducta"             "genero"               "descripcion_conducta"
**************** OLD FILE ****************
# A tibble: 3 × 8
  fecha_hecho         cod_depto departamento cod_muni municipio conducta                           genero cantidad
  <dttm>              <chr>     <chr>        <chr>    <chr>     <chr>                              <chr>     <dbl>
1 2003-12-27 00:00:00 91        AMAZONAS     91001    LETICIA   ARTÍCULO 188. TRAFICO DE MIGRANTES MASCU…        1
2 2004-08-24 00:00:00 73        TOLIMA       73624    ROVIRA    ARTÍCULO 188. TRAFICO DE MIGRANTES FEMEN…        2
3 2005-06-09 00:00:00 41        HUILA        41001    NEIVA     ARTÍCULO 188. TRAFICO DE MIGRANTES FEMEN…        1
++++++++++++++++++++ NEW FILE ++++++++++++++++++++
# A tibble: 3 × 7
  fecha_hecho         cod_depto departamento cod_muni municipio descripcion_conducta               cantidad
  <dttm>              <chr>     <chr>        <chr>    <chr>     <chr>                                 <dbl>
1 2003-12-27 00:00:00 91        AMAZONAS     91001    LETICIA   ARTÍCULO 188. TRAFICO DE MIGRANTES        1
2 2004-08-24 00:00:00 73        TOLIMA       73624    ROVIRA    ARTÍCULO 188. TRAFICO DE MIGRANTES        1
3 2004-08-24 00:00:00 73        TOLIMA       73624    ROVIRA    ARTÍCULO 188. TRAFICO DE MIGRANTES        1





[1] 5
-|                                                                                                                /                                                                                                                -/                                                                                                                -/                                                                                                                /                                                                                                                -                                                                                                                 # # # # # # # # # # # # # # # # # # # # # # # # # # # # # # # # # # # # # 
 # #   HURTO_VEHICULOS.xlsx  # #
 # # # # # # # # # # # # # # # # # # # # # # # # # # # # # # # # # # # # # 
- YEARS: 
> Old:
 2003  2004  2005  2006  2007  2008  2009  2010  2011  2012  2013  2014  2015  2016  2017  2018  2019  2020  2021 
10916  9426  8736  9506  9354 10169 10186 10137 12632 14559 15692 15311 17310 19521 22106 21538 23202 17980 21881 
 2022  2023 
24728 16106 

> New:
 2003  2004  2005  2006  2007  2008  2009  2010  2011  2012  2013  2014  2015  2016  2017  2018  2019  2020  2021 
10916  9426  8736  9506  9354 10169 10186 10137 12632 14559 15692 15311 17310 19521 22106 21538 23202 17980 21881 
 2022  2023 
24728 24046 


> There are  6 columns not shared: 
[1] "departamento"  "municipio"     "tipo_delito"   "depto_gie"     "municipio_gie" "tipo"         
**************** OLD FILE ****************
# A tibble: 3 × 8
  fecha_hecho         cod_depto departamento cod_muni municipio    tipo_delito          zona   cantidad
  <dttm>              <chr>     <chr>        <chr>    <chr>        <chr>                <chr>     <dbl>
1 2003-01-01 00:00:00 05        ANTIOQUIA    05001    MEDELLIN     HURTO A MOTOCICLETAS URBANA        5
2 2003-01-01 00:00:00 05        ANTIOQUIA    05088    BELLO        HURTO AUTOMOTORES    URBANA        1
3 2003-01-01 00:00:00 11        BOGOTÁ D.C.  11001    BOGOTA, D.C. HURTO A MOTOCICLETAS URBANA        2
++++++++++++++++++++ NEW FILE ++++++++++++++++++++
# A tibble: 3 × 8
  fecha_hecho         cod_depto depto_gie cod_muni municipio_gie tipo                 zona   cantidad
  <dttm>              <chr>     <chr>     <chr>    <chr>         <chr>                <chr>     <dbl>
1 2003-01-01 00:00:00 91        AMAZONAS  91001    LETICIA       HURTO A MOTOCICLETAS URBANA        1
2 2003-01-01 00:00:00 05        ANTIOQUIA 05088    BELLO         HURTO AUTOMOTORES    URBANA        1
3 2003-01-01 00:00:00 05        ANTIOQUIA 05001    MEDELLIN      HURTO A MOTOCICLETAS URBANA        5





[1] 6
-|                                                                                                                /                                                                                                                -/                                                                                                                -/                                                                                                                /                                                                                                                -                                                                                                                 # # # # # # # # # # # # # # # # # # # # # # # # # # # # # # # # # # # # # 
 # #   HURTO_RESIDENCIAS.xlsx  # #
 # # # # # # # # # # # # # # # # # # # # # # # # # # # # # # # # # # # # # 
- YEARS: 
> Old:
 2003  2004  2005  2006  2007  2008  2009  2010  2011  2012  2013  2014  2015  2016  2017  2018  2019  2020  2021 
 8538  7735  7523 10808  9609 10765  9957  9257  9742 13010 12790 12446 13696 15829 26202 25569 25133 18123 19143 
 2022  2023 
20139 13260 

> New:
 2003  2004  2005  2006  2007  2008  2009  2010  2011  2012  2013  2014  2015  2016  2017  2018  2019  2020  2021 
 8538  7735  7523 10808  9609 10765  9957  9257  9742 13010 12790 12446 13696 15829 26202 25569 25133 18123 19143 
 2022  2023 
20139 19241 


> There are  2 columns not shared: 
[1] "tipo_delito" "zona"       
**************** OLD FILE ****************
# A tibble: 3 × 7
  fecha_hecho         cod_depto departamento cod_muni municipio    tipo_delito cantidad
  <dttm>              <chr>     <chr>        <chr>    <chr>        <chr>          <dbl>
1 2003-01-01 00:00:00 05        ANTIOQUIA    05001    MEDELLIN     URBANA             2
2 2003-01-01 00:00:00 05        ANTIOQUIA    05282    FREDONIA     URBANA             1
3 2003-01-01 00:00:00 08        ATLÁNTICO    08001    BARRANQUILLA URBANA             2
++++++++++++++++++++ NEW FILE ++++++++++++++++++++
# A tibble: 3 × 7
  fecha_hecho         cod_depto departamento cod_muni municipio    zona   cantidad
  <dttm>              <chr>     <chr>        <chr>    <chr>        <chr>     <dbl>
1 2003-01-01 00:00:00 05        ANTIOQUIA    05282    FREDONIA     URBANA        1
2 2003-01-01 00:00:00 05        ANTIOQUIA    05001    MEDELLIN     URBANA        2
3 2003-01-01 00:00:00 08        ATLÁNTICO    08001    BARRANQUILLA URBANA        2





[1] 7
-|                                                                                                                /                                                                                                                -/                                                                                                                -|                                                                                                                /                                                                                                                -/                                                                                                                 # # # # # # # # # # # # # # # # # # # # # # # # # # # # # # # # # # # # # 
 # #   EXTORSION.xlsx  # #
 # # # # # # # # # # # # # # # # # # # # # # # # # # # # # # # # # # # # # 
- YEARS: 
> Old:
1996 1997 1998 1999 2000 2001 2002 2003 2004 2005 2006 2007 2008 2009 2010 2011 2012 2013 2014 2015 2016 2017 
 608   20  966 1181 1290 1446 1565 1745 1819 1520 1410  935  729 1254 1233 1598 1982 3934 4115 4476 4184 4623 
2018 2019 2020 2021 2022 2023 
5694 6567 5856 5847 7125 4629 

> New:< table of extent 0 >


> There are  2 columns not shared: 
[1] "fecha_hecho"  "fecha_hechos"
**************** OLD FILE ****************
# A tibble: 3 × 6
  fecha_hecho         cod_depto departamento cod_muni municipio    cantidad
  <dttm>              <chr>     <chr>        <chr>    <chr>           <dbl>
1 1996-01-01 00:00:00 11        BOGOTÁ D.C.  11001    BOGOTA D.C.         1
2 1996-01-01 00:00:00 50        META         50689    SAN MARTIN          1
3 1996-01-02 00:00:00 11        BOGOTÁ D.C.  11001    BOGOTA, D.C.        2
++++++++++++++++++++ NEW FILE ++++++++++++++++++++
# A tibble: 3 × 6
  fecha_hechos        cod_depto departamento cod_muni municipio    cantidad
  <dttm>              <chr>     <chr>        <chr>    <chr>           <dbl>
1 1996-01-01 00:00:00 50        META         50689    SAN MARTIN          1
2 1996-01-01 00:00:00 11        BOGOTÁ D.C.  11001    BOGOTA, D.C.        1
3 1996-01-02 00:00:00 11        BOGOTÁ D.C.  11001    BOGOTA, D.C.        2





[1] 8
-\                                                                                                                /                                                                                                                -|                                                                                                                -|/-\|/-\|/-\|/-\|/-\|/-\|/-\|/-\|/-\|/-\|/-                                                                                                                /                                                                                                                -|/-\|/-\|/-\|/-\                                                                                                                 # # # # # # # # # # # # # # # # # # # # # # # # # # # # # # # # # # # # # 
 # #   VIOLENCIA_INTRAFAMILIAR.xlsx  # #
 # # # # # # # # # # # # # # # # # # # # # # # # # # # # # # # # # # # # # 
- YEARS: 
> Old:
 2003  2004  2005  2006  2007  2008  2009  2010  2011  2012  2013  2014  2015  2016  2017  2018 
 6226  6995  8383 12372 11773 11163 12921 12088 13545 16132 17167 21074 30285 33597 32807 31399 

> New:
 2003  2004  2005  2006  2007  2008  2009  2010  2011  2012  2013  2014  2015  2016  2017  2018  2019  2020  2021 
 8534  9082 11485 18334 18381 19027 21026 20086 22112 27187 25685 31603 42983 53400 52321 50634 51901 49538 58335 
 2022  2023 
47233 41794 


> There are  1 columns not shared: 
[1] "sexo"
**************** OLD FILE ****************
# A tibble: 3 × 7
  fecha_hecho         cod_depto departamento cod_muni municipio zona   cantidad
  <dttm>              <chr>     <chr>        <chr>    <chr>     <chr>     <dbl>
1 2003-01-01 00:00:00 05        ANTIOQUIA    05001    MEDELLIN  URBANA       12
2 2003-01-01 00:00:00 05        ANTIOQUIA    05088    BELLO     URBANA        2
3 2003-01-01 00:00:00 05        ANTIOQUIA    05129    CALDAS    URBANA        2
++++++++++++++++++++ NEW FILE ++++++++++++++++++++
# A tibble: 3 × 8
  fecha_hecho         cod_depto departamento cod_muni municipio zona   sexo     cantidad
  <dttm>              <chr>     <chr>        <chr>    <chr>     <chr>  <chr>       <dbl>
1 2003-01-01 00:00:00 05        ANTIOQUIA    05266    ENVIGADO  URBANA FEMENINO        5
2 2003-01-01 00:00:00 05        ANTIOQUIA    05129    CALDAS    URBANA FEMENINO        2
3 2003-01-01 00:00:00 05        ANTIOQUIA    05001    MEDELLIN  URBANA FEMENINO       10





[1] 9
-|                                                                                                                /                                                                                                                -/                                                                                                                -                                                                                                                /                                                                                                                -\                                                                                                                 # # # # # # # # # # # # # # # # # # # # # # # # # # # # # # # # # # # # # 
 # #   DELITOS_INFORMATICOS.xlsx  # #
 # # # # # # # # # # # # # # # # # # # # # # # # # # # # # # # # # # # # # 
- YEARS: 
> Old:
 2006  2008  2009  2010  2011  2012  2013  2014  2015  2016  2017  2018  2019  2020  2021  2022  2023 
    2     1   507   921  1398  2442  3429  2916  5688  7601 10401 14053 14669 24995 30017 35291 13145 

> New:
 2006  2008  2009  2010  2011  2012  2013  2014  2015  2016  2017  2018  2019  2020  2021  2022  2023 
    2     1   507   921  1398  2440  3427  2912  5688  7601 10389 14049 14658 24987 27860 32374 30638 


> There are  1 columns not shared: 
[1] "descripcion_conducta"
**************** OLD FILE ****************
# A tibble: 3 × 6
  fecha_hecho         cod_depto departamento cod_muni municipio    cantidad
  <dttm>              <chr>     <chr>        <chr>    <chr>           <dbl>
1 2006-05-13 00:00:00 11        BOGOTÁ D.C.  11001    BOGOTA, D.C.        1
2 2006-10-06 00:00:00 11        BOGOTÁ D.C.  11001    BOGOTA, D.C.        1
3 2008-05-24 00:00:00 11        BOGOTÁ D.C.  11001    BOGOTA, D.C.        1
++++++++++++++++++++ NEW FILE ++++++++++++++++++++
# A tibble: 3 × 7
  fecha_hecho         cod_depto departamento cod_muni municipio    descripcion_conducta                   cantidad
  <dttm>              <chr>     <chr>        <chr>    <chr>        <chr>                                     <dbl>
1 2006-05-13 00:00:00 11        BOGOTÁ D.C.  11001    BOGOTA, D.C. ARTÍCULO 269I. HURTO POR MEDIOS INFOR…        1
2 2006-10-06 00:00:00 11        BOGOTÁ D.C.  11001    BOGOTA, D.C. ARTÍCULO 269A. ACCESO ABUSIVO A UN SI…        1
3 2008-05-24 00:00:00 11        BOGOTÁ D.C.  11001    BOGOTA, D.C. ARTÍCULO 269A. ACCESO ABUSIVO A UN SI…        1





[1] 10
-/                                                                                                                /                                                                                                                -                                                                                                                -/                                                                                                                /                                                                                                                -                                                                                                                 # # # # # # # # # # # # # # # # # # # # # # # # # # # # # # # # # # # # # 
 # #   PUENTES_VIAS.xlsx  # #
 # # # # # # # # # # # # # # # # # # # # # # # # # # # # # # # # # # # # # 
- YEARS: 
> Old:
2003 2004 2005 2006 2007 2008 2009 2010 2011 2012 2013 2014 2015 2016 2017 2018 2019 2020 2021 2022 2023 
 325  217  142  172   50   82   72   52   38   86   38   30   17    6    4    6    5   90    3   52   15 

> New:
2003 2004 2005 2006 2007 2008 2009 2010 2011 2012 2013 2014 2015 2016 2017 2018 2019 2020 2021 2022 2023 
 338  222  150  176   51   82   73   52   40   90   44   34   19    6    4    6    5   91    3   53   20 


> There are  2 columns not shared: 
[1] "clase_de_bien" "clase_bien"   
**************** OLD FILE ****************
# A tibble: 3 × 7
  fecha_hecho         cod_depto departamento cod_muni municipio clase_de_bien cantidad
  <dttm>              <chr>     <chr>        <chr>    <chr>     <chr>            <dbl>
1 2003-01-01 00:00:00 05        ANTIOQUIA    05660    SAN LUIS  PUENTE               1
2 2003-01-01 00:00:00 52        NARIÑO       52356    IPIALES   VIAS PUBLICAS        1
3 2003-01-02 00:00:00 19        CAUCA        19001    POPAYAN   PUENTE               1
++++++++++++++++++++ NEW FILE ++++++++++++++++++++
# A tibble: 3 × 7
  fecha_hecho         cod_depto departamento cod_muni municipio clase_bien    cantidad
  <dttm>                  <dbl> <chr>        <chr>    <chr>     <chr>            <dbl>
1 2003-01-01 00:00:00         5 ANTIOQUIA    05660    SAN LUIS  PUENTE               1
2 2003-01-01 00:00:00        52 NARIÑO       52356    IPIALES   VIAS PUBLICAS        1
3 2003-01-02 00:00:00        19 CAUCA        19001    POPAYAN   PUENTE               1





[1] 11
-\                                                                                                                /                                                                                                                -|                                                                                                                -\                                                                                                                /                                                                                                                -|                                                                                                                 # # # # # # # # # # # # # # # # # # # # # # # # # # # # # # # # # # # # # 
 # #   COCAINA.xlsx  # #
 # # # # # # # # # # # # # # # # # # # # # # # # # # # # # # # # # # # # # 
- YEARS: 
> Old:
 2010  2011  2012  2013  2014  2015  2016  2017  2018  2019  2020  2021  2022  2023 
 5619  6319  8176 10855 12459 13603 14566 12531 11446  7620  5729  6481  6997  5456 

> New:
 2010  2011  2012  2013  2014  2015  2016  2017  2018  2019  2020  2021  2022  2023 
 7685  8391 12360 16575 20284 21358 22400 16240 16058 10263  7330  8794 10045 10563 


> There are  2 columns not shared: 
[1] "unidad"           "unidad_de_medida"
**************** OLD FILE ****************
# A tibble: 3 × 7
  fecha_hecho         cod_depto departamento cod_muni municipio cantidad unidad   
  <dttm>              <chr>     <chr>        <chr>    <chr>        <dbl> <chr>    
1 2010-01-01 00:00:00 05        ANTIOQUIA    05091    BETANIA      0.004 KILOGRAMO
2 2010-01-01 00:00:00 05        ANTIOQUIA    05120    CACERES      0.002 KILOGRAMO
3 2010-01-01 00:00:00 05        ANTIOQUIA    05670    SAN ROQUE    0.025 KILOGRAMO
++++++++++++++++++++ NEW FILE ++++++++++++++++++++
# A tibble: 3 × 7
  fecha_hecho         cod_depto departamento cod_muni municipio    cantidad unidad_de_medida
  <dttm>              <chr>     <chr>        <chr>    <chr>           <dbl> <chr>           
1 2010-01-01 00:00:00 66        RISARALDA    66170    DOSQUEBRADAS    0.002 KILOGRAMO       
2 2010-01-01 00:00:00 66        RISARALDA    66170    DOSQUEBRADAS    0.002 KILOGRAMO       
3 2010-01-01 00:00:00 11        BOGOTÁ D.C.  11001    BOGOTA, D.C.    0.613 KILOGRAMO       





[1] 12
-/                                                                                                                /                                                                                                                -                                                                                                                -/                                                                                                                /                                                                                                                -                                                                                                                 # # # # # # # # # # # # # # # # # # # # # # # # # # # # # # # # # # # # # 
 # #   HEROINA.xlsx  # #
 # # # # # # # # # # # # # # # # # # # # # # # # # # # # # # # # # # # # # 
- YEARS: 
> Old:
2010 2011 2012 2013 2014 2015 2016 2017 2018 2019 2020 2021 2022 2023 
 938  935 1006 1025  932  850 1140  710  510  575  237  357  460  291 

> New:
2010 2011 2012 2013 2014 2015 2016 2017 2018 2019 2020 2021 2022 2023 
1351 1715 1753 1598 1348 1126 1618  870  537  623  252  385  531  404 


> There are  2 columns not shared: 
[1] "unidad"             "unidades_de_medida"
**************** OLD FILE ****************
# A tibble: 3 × 7
  fecha_hecho         cod_depto departamento       cod_muni municipio cantidad unidad   
  <dttm>              <chr>     <chr>              <chr>    <chr>        <dbl> <chr>    
1 2010-01-01 00:00:00 63        QUINDÍO            63001    ARMENIA     0.001  KILOGRAMO
2 2010-01-03 00:00:00 19        CAUCA              19548    PIENDAMO    2      KILOGRAMO
3 2010-01-03 00:00:00 54        NORTE DE SANTANDER 54001    CUCUTA      0.0024 KILOGRAMO
++++++++++++++++++++ NEW FILE ++++++++++++++++++++
# A tibble: 3 × 7
  fecha_hecho         cod_depto departamento cod_muni municipio    cantidad unidades_de_medida
  <dttm>              <chr>     <chr>        <chr>    <chr>           <dbl> <chr>             
1 2010-01-01 00:00:00 63        QUINDÍO      63001    ARMENIA         0.001 KILOGRAMO         
2 2010-01-03 00:00:00 66        RISARALDA    66001    PEREIRA         0.001 KILOGRAMO         
3 2010-01-03 00:00:00 66        RISARALDA    66170    DOSQUEBRADAS    0.001 KILOGRAMO         





[1] 13
-/                                                                                                                /                                                                                                                -                                                                                                                -|/-\|/-\|/-\|/-\|/-\|/-\|/-\|/-\|/-\|/-\|/-\|/-\|                                                                                                                /                                                                                                                -/-\|/-\|/-\|/-\|/-\|/                                                                                                                 # # # # # # # # # # # # # # # # # # # # # # # # # # # # # # # # # # # # # 
 # #   MARIHUANA.xlsx  # #
 # # # # # # # # # # # # # # # # # # # # # # # # # # # # # # # # # # # # # 
- YEARS: 
> Old:
 2010  2011  2012  2013  2014  2015  2016  2017  2018  2019  2020  2021  2022  2023 
34674 37117 44122 48485 47738 49292 47816 40074 30996 18005 15518 14218 13968 10399 

> New:
  2010   2011   2012   2013   2014   2015   2016   2017   2018   2019   2020   2021   2022   2023 
 74159  71541  90383 106674 107176 103435  98031  64946  48731  27821  22771  23870  23969  24142 


> There are  2 columns not shared: 
[1] "unidad"           "unidad_de_medida"
**************** OLD FILE ****************
# A tibble: 3 × 7
  fecha_hecho         cod_depto departamento cod_muni municipio cantidad unidad   
  <dttm>              <chr>     <chr>        <chr>    <chr>        <dbl> <chr>    
1 2010-01-01 00:00:00 05        ANTIOQUIA    05001    MEDELLIN     0.75  KILOGRAMO
2 2010-01-01 00:00:00 05        ANTIOQUIA    05031    AMALFI       0.016 KILOGRAMO
3 2010-01-01 00:00:00 05        ANTIOQUIA    05034    ANDES        0.01  KILOGRAMO
++++++++++++++++++++ NEW FILE ++++++++++++++++++++
# A tibble: 3 × 7
  fecha_hecho         cod_depto departamento cod_muni municipio   cantidad unidad_de_medida
  <dttm>              <chr>     <chr>        <chr>    <chr>          <dbl> <chr>           
1 2023-12-31 00:00:00 18        CAQUETÁ      18001    FLORENCIA      1.8   KILOGRAMO       
2 2023-12-31 00:00:00 05        ANTIOQUIA    05674    SAN VICENTE    0.033 KILOGRAMO       
3 2023-12-31 00:00:00 17        CALDAS       17001    MANIZALES      0.017 KILOGRAMO       





[1] 14
-                                                                                                                /                                                                                                                -\                                                                                                                -                                                                                                                /                                                                                                                -\                                                                                                                 # # # # # # # # # # # # # # # # # # # # # # # # # # # # # # # # # # # # # 
 # #   INFRAESTRUCTURAS.xlsx  # #
 # # # # # # # # # # # # # # # # # # # # # # # # # # # # # # # # # # # # # 
- YEARS: 
> Old:
2010 2011 2012 2013 2014 2015 2016 2017 2018 2019 2020 2021 2022 2023 
1387 1289 1355 1375 1591 2433 3104 2383 2599 3021 2793 3172 2423 1548 

> New:
2010 2011 2012 2013 2014 2015 2016 2017 2018 2019 2020 2021 2022 2023 
1385 1285 1352 1372 1566 2393 3075 2370 2594 3021 2793 3159 2423 2426 


> There are  2 columns not shared: 
[1] "unidad"           "unidad_de_medida"
**************** OLD FILE ****************
# A tibble: 3 × 7
  fecha_hecho         cod_depto departamento cod_muni municipio     cantidad unidad  
  <dttm>              <chr>     <chr>        <chr>    <chr>            <dbl> <chr>   
1 2010-01-02 00:00:00 52        NARIÑO       52490    OLAYA HERRERA        1 UNIDADES
2 2010-01-03 00:00:00 05        ANTIOQUIA    05040    ANORI                1 UNIDADES
3 2010-01-03 00:00:00 25        CUNDINAMARCA 25572    PUERTO SALGAR        1 UNIDADES
++++++++++++++++++++ NEW FILE ++++++++++++++++++++
# A tibble: 3 × 7
  fecha_hecho         cod_depto departamento cod_muni municipio     cantidad unidad_de_medida
  <dttm>              <chr>     <chr>        <chr>    <chr>            <dbl> <chr>           
1 2010-01-02 00:00:00 52        NARIÑO       52490    OLAYA HERRERA        1 UNIDAD          
2 2010-01-03 00:00:00 05        ANTIOQUIA    05040    ANORI                1 UNIDAD          
3 2010-01-03 00:00:00 25        CUNDINAMARCA 25572    PUERTO SALGAR        1 UNIDAD          





[1] 15
-|                                                                                                                /                                                                                                                -/                                                                                                                -\                                                                                                                /                                                                                                                -|                                                                                                                 # # # # # # # # # # # # # # # # # # # # # # # # # # # # # # # # # # # # # 
 # #   INSUMOS_SOLIDOS.xlsx  # #
 # # # # # # # # # # # # # # # # # # # # # # # # # # # # # # # # # # # # # 
- YEARS: 
> Old:
2010 2011 2012 2013 2014 2015 2016 2017 2018 2019 2020 2021 2022 2023 
4010 3376 3339 3442 3714 3856 4616 4684 5023 5440 4952 5696 4579 2671 

> New:
 2010  2011  2012  2013  2014  2015  2016  2017  2018  2019  2020  2021  2022  2023 
 6898  5476  5420  5552  6047  7082  8874  9286 10182 11636 10723 11575  8980  9185 


> There are  2 columns not shared: 
[1] "unidad"           "unidad_de_medida"
**************** OLD FILE ****************
# A tibble: 3 × 7
  fecha_hecho         cod_depto departamento cod_muni municipio cantidad unidad    
  <dttm>              <chr>     <chr>        <chr>    <chr>        <dbl> <chr>     
1 2010-01-01 00:00:00 19        CAUCA        19256    EL TAMBO         2 KILOGRAMOS
2 2010-01-03 00:00:00 05        ANTIOQUIA    05040    ANORI          206 KILOGRAMOS
3 2010-01-03 00:00:00 05        ANTIOQUIA    05120    CACERES        300 KILOGRAMOS
++++++++++++++++++++ NEW FILE ++++++++++++++++++++
# A tibble: 3 × 7
  fecha_hecho         cod_depto departamento cod_muni municipio cantidad unidad_de_medida
  <dttm>              <chr>     <chr>        <chr>    <chr>        <dbl> <chr>           
1 2010-01-01 00:00:00 19        CAUCA        19256    EL TAMBO         2 KILOGRAMO       
2 2010-01-03 00:00:00 05        ANTIOQUIA    05040    ANORI          200 KILOGRAMO       
3 2010-01-03 00:00:00 05        ANTIOQUIA    05040    ANORI            3 KILOGRAMO       





[1] 16
-\                                                                                                                /                                                                                                                -|                                                                                                                -/                                                                                                                /                                                                                                                -                                                                                                                 # # # # # # # # # # # # # # # # # # # # # # # # # # # # # # # # # # # # # 
 # #   INSUMOS_LIQUIDOS.xlsx  # #
 # # # # # # # # # # # # # # # # # # # # # # # # # # # # # # # # # # # # # 
- YEARS: 
> Old:
2010 2011 2012 2013 2014 2015 2016 2017 2018 2019 2020 2021 2022 2023 
3599 2791 2798 2564 2699 2825 3161 3393 3931 4030 3658 4041 4720 3075 

> New:
 2010  2011  2012  2013  2014  2015  2016  2017  2018  2019  2020  2021  2022  2023 
 5858  4246  4107  3889  4364  4675  5260  6032  7090  7497  7249  7690  9567 11891 


> There are  2 columns not shared: 
[1] "unidad"           "unidad_de_medida"
**************** OLD FILE ****************
# A tibble: 3 × 7
  fecha_hecho         cod_depto departamento cod_muni municipio       cantidad unidad
  <dttm>              <chr>     <chr>        <chr>    <chr>              <dbl> <chr> 
1 2010-01-02 00:00:00 05        ANTIOQUIA    05361    ITUANGO               10 GALÓN 
2 2010-01-02 00:00:00 20        CESAR        20045    BECERRIL               6 GALÓN 
3 2010-01-02 00:00:00 23        CÓRDOBA      23682    SAN JOSE DE URE       17 GALÓN 
++++++++++++++++++++ NEW FILE ++++++++++++++++++++
# A tibble: 3 × 7
  fecha_hecho         cod_depto departamento cod_muni municipio cantidad unidad_de_medida
  <dttm>              <chr>     <chr>        <chr>    <chr>        <dbl> <chr>           
1 2010-01-02 00:00:00 05        ANTIOQUIA    05361    ITUANGO          4 GALÓN           
2 2010-01-02 00:00:00 05        ANTIOQUIA    05361    ITUANGO          6 GALÓN           
3 2010-01-02 00:00:00 20        CESAR        20045    BECERRIL         6 GALÓN           





[1] 17
-/                                                                                                                /                                                                                                                -                                                                                                                -/                                                                                                                /                                                                                                                -                                                                                                                 # # # # # # # # # # # # # # # # # # # # # # # # # # # # # # # # # # # # # 
 # #   MINAS_INTERVENIDAS.xlsx  # #
 # # # # # # # # # # # # # # # # # # # # # # # # # # # # # # # # # # # # # 
- YEARS: 
> Old:
2010 2011 2012 2013 2014 2015 2016 2017 2018 2019 2020 2021 2022 2023 
  96  191  322  282  290  733  653  611  611 1071 1068  862  673  846 

> New:
2010 2011 2012 2013 2014 2015 2016 2017 2018 2019 2020 2021 2022 2023 
 111  344  509  490  435  747  661  616  615 1089 1076  876  805 1660 


> There are  2 columns not shared: 
[1] "clase_de_bien"    "unidad_de_medida"
**************** OLD FILE ****************
# A tibble: 3 × 8
  fecha_hecho         cod_depto departamento cod_muni municipio  clase_de_bien cantidad unidad_de_medida
  <dttm>              <chr>     <chr>        <chr>    <chr>      <chr>            <dbl> <chr>           
1 2010-01-04 00:00:00 15        BOYACÁ       15455    MIRAFLORES INTERVENIDA          1 UNIDADES        
2 2010-01-06 00:00:00 15        BOYACÁ       15455    MIRAFLORES INTERVENIDA          1 UNIDADES        
3 2010-01-08 00:00:00 15        BOYACÁ       15646    SAMACA     INTERVENIDA          1 UNIDADES        
++++++++++++++++++++ NEW FILE ++++++++++++++++++++
# A tibble: 3 × 6
  fecha_hecho         cod_depto departamento cod_muni municipio cantidad
  <dttm>              <chr>     <chr>        <chr>    <chr>        <dbl>
1 2010-10-13 00:00:00 05        ANTIOQUIA    05031    AMALFI           2
2 2010-10-26 00:00:00 05        ANTIOQUIA    05031    AMALFI           1
3 2010-12-17 00:00:00 05        ANTIOQUIA    05031    AMALFI           1





[1] 18
-/                                                                                                                /                                                                                                                -                                                                                                                -/                                                                                                                /                                                                                                                -                                                                                                                 # # # # # # # # # # # # # # # # # # # # # # # # # # # # # # # # # # # # # 
 # #   CAPTURAS_MINERIA_ILEGAL.xlsx  # #
 # # # # # # # # # # # # # # # # # # # # # # # # # # # # # # # # # # # # # 
- YEARS: 
> Old:
2010 2011 2012 2013 2014 2015 2016 2017 2018 2019 2020 2021 2022 2023 
  74  263  406  311  400  471  548  524  399  363  433  382  300  229 

> New:
2010 2011 2012 2013 2014 2015 2016 2017 2018 2019 2020 2021 2022 2023 
  75  265  406  311  406  492  565  547  418  378  443  403 1130 1109 


> There are  2 columns not shared: 
[1] "cantidad" "capturas"
**************** OLD FILE ****************
# A tibble: 3 × 7
  fecha_hecho         cod_depto departamento       cod_muni municipio cantidad unidad_de_medida
  <dttm>              <chr>     <chr>              <chr>    <chr>        <dbl> <chr>           
1 2010-08-09 00:00:00 23        CÓRDOBA            23068    AYAPEL           7 PERSONA         
2 2010-08-11 00:00:00 54        NORTE DE SANTANDER 54377    LABATECA         8 PERSONA         
3 2010-08-12 00:00:00 25        CUNDINAMARCA       25612    RICAURTE        11 PERSONA         
++++++++++++++++++++ NEW FILE ++++++++++++++++++++
# A tibble: 3 × 7
  fecha_hecho         cod_depto departamento       cod_muni municipio capturas unidad_de_medida
  <dttm>              <chr>     <chr>              <chr>    <chr>        <dbl> <chr>           
1 2010-08-09 00:00:00 23        CÓRDOBA            23068    AYAPEL           7 PERSONA         
2 2010-08-11 00:00:00 54        NORTE DE SANTANDER 54377    LABATECA         8 PERSONA         
3 2010-08-12 00:00:00 25        CUNDINAMARCA       25612    RICAURTE        11 PERSONA         





